<?xml version="1.0" encoding="utf-8"?>
<!-- Generator: Adobe Illustrator 25.0.0, SVG Export Plug-In . SVG Version: 6.00 Build 0)  -->
<svg version="1.1" id="Layer_1" xmlns="http://www.w3.org/2000/svg" xmlns:xlink="http://www.w3.org/1999/xlink" x="0px" y="0px"
	 viewBox="0 0 32.5 32.5" style="enable-background:new 0 0 32.5 32.5;" xml:space="preserve">
<style type="text/css">
	.st0{fill-rule:evenodd;clip-rule:evenodd;fill:#2D3047;}
	.st1{fill:#FAFAFA;}
</style>
<rect x="-0.1" y="-0.1" class="st0" width="32.8" height="32.8"/>
<g>
	<path class="st1" d="M23,15.6c3.4-0.1,6.1-2.9,6.1-6.2V4.8h-5.6V2.7H9v2.1H3.5v4.6c0,3.4,2.7,6.1,6.1,6.2c0.9,2.3,2.8,4,5.3,4.5
		v2.2c-1.5,0.4-2.7,1.5-3.3,3h9.6c-0.6-1.4-1.8-2.5-3.3-3v-2.2C20.1,19.6,22.1,17.9,23,15.6z M13.8,12.9l0-1.2l-1.6-2.1l2.5-0.7
		l1-1.5l0.5-0.7l0.5,0.7l1,1.5l2.5,0.7l-1.6,2.1l0,1.2l0,1.4l-2.4-0.9l-2.4,0.9L13.8,12.9z M26.3,7.5v1.9c0,1.7-1.2,3.2-2.9,3.5V7.5
		H26.3z M6.2,9.4V7.5H9v5.4C7.4,12.5,6.2,11.1,6.2,9.4z"/>
	<rect x="9.1" y="26.9" class="st1" width="14.2" height="2.9"/>
</g>
</svg>
