<?xml version="1.0" encoding="utf-8"?>
<!-- Generator: Adobe Illustrator 25.0.0, SVG Export Plug-In . SVG Version: 6.00 Build 0)  -->
<svg version="1.1" id="Layer_1" xmlns="http://www.w3.org/2000/svg" xmlns:xlink="http://www.w3.org/1999/xlink" x="0px" y="0px"
	 viewBox="0 0 1270 672" style="enable-background:new 0 0 1270 672;" xml:space="preserve">
<style type="text/css">
	.st0{fill:#F4D9D6;}
	.st1{fill:#F18A21;}
	.st2{fill:#6BC7B8;}
</style>
<path class="st0" d="M247.9,13.6c0.6,3.7,0.8,7.5,0.6,11.3c0,0.3-0.1,0.7-0.4,0.8c-0.3,0.1-0.6-0.1-0.8-0.3c-0.6-0.6-1.2-1.3-1.7-2
	c-0.9-1.2-1.9-2.4-2.8-3.6c-0.5-0.6-2.7-2.6-2.6-3.4C240.4,15.3,246.7,14,247.9,13.6z"/>
<path class="st1" d="M497.4,14.4c0,0.2,0,0.4,0.1,0.5c0.1,0.1,0.4,0.1,0.6,0c3.7-1,7.3-2.5,10.6-4.5c0.2-0.1,0.4-0.2,0.4-0.4
	c0-0.2-0.1-0.3-0.3-0.4c-1.6-1.4-3.3-2.7-4.9-4.1c-1.4-1.1-3-3.1-4.7-3.7c-1,1.4-1,4.5-1.2,6.2C497.6,10.2,497.4,12.3,497.4,14.4z"
	/>
<path class="st2" d="M229.6,16.4c0,0.2,0,0.4,0.1,0.5c0.1,0.1,0.4,0.1,0.6,0c3.7-1,7.3-2.5,10.6-4.5c0.2-0.1,0.4-0.2,0.4-0.4
	c0-0.2-0.1-0.3-0.3-0.4c-1.6-1.4-3.3-2.7-4.9-4.1c-1.4-1.1-3-3.1-4.7-3.7c-1,1.4-1,4.5-1.2,6.2C229.9,12.1,229.6,14.3,229.6,16.4z"
	/>
<path class="st2" d="M3,14c0,0.2,0,0.4,0.1,0.5c0.1,0.1,0.4,0.1,0.6,0c3.7-1,7.3-2.5,10.6-4.5c0.2-0.1,0.4-0.2,0.4-0.4
	c0-0.2-0.1-0.3-0.3-0.4c-1.6-1.4-3.3-2.7-4.9-4.1C8.1,4,6.4,2,4.8,1.4c-1,1.4-1,4.5-1.2,6.2C3.3,9.7,3,11.8,3,14z"/>
<path class="st0" d="M154.7,15.1c-0.3,0.4-0.6,0.9-0.3,1.3c0.1,0.2,0.4,0.3,0.6,0.4c3.9,1.3,7.9,2.2,12,2.7c-0.1-2-1.1-3.8-2-5.6
	c-0.9-1.8-1.8-3.5-2.8-5.3c-0.1-0.2-0.3-0.5-0.5-0.6C160.5,7.3,155.4,14,154.7,15.1z"/>
<path class="st2" d="M528.4,19c0,0.4,0.1,0.8,0.5,0.9c0.3,0.1,0.5-0.1,0.7-0.3c2.7-2.4,5.3-5,7.8-7.6c0.1-0.1,0.2-0.2,0.2-0.4
	c0-0.2-0.2-0.4-0.4-0.5c-1.7-1.1-3.3-2.2-5-3.3c-0.9-0.6-3.5-2.8-4.2-1.7c-0.3,0.5,0,2.5,0,3.1c0,1.1,0,2.1,0.1,3.2
	C528.1,14.6,528.2,16.8,528.4,19z"/>
<path class="st0" d="M19,11.2c0.8,1.6,2.3,2.8,4.1,3.2c1.7,0.4,3.7-0.1,4.9-1.4c1.9-1.9,1.7-5.3,0-7.4c-1.4-1.7-4.9-3.4-7.2-2.3
	C18,4.7,17.7,8.8,19,11.2z"/>
<path class="st1" d="M428.7,10.9c0.8,1.6,2.3,2.8,4.1,3.2c1.7,0.4,3.7-0.1,4.9-1.4c1.9-1.9,1.7-5.3,0-7.4c-1.4-1.7-4.9-3.4-7.2-2.3
	C427.7,4.3,427.4,8.5,428.7,10.9z"/>
<path class="st0" d="M513.1,10.3c-0.1,2,1,4,2.8,4.9c0.9,0.5,1.9,0.7,2.9,0.7c0.8,0,1.6,0,2.3-0.3c1.7-0.6,3-2.2,3.2-4
	c0.2-1.8-0.6-3.7-2.1-4.7C518.9,4.3,513.4,5.5,513.1,10.3z"/>
<path class="st1" d="M69.7,12.1c0.5,0.3,1.1,0.4,1.7,0.5c1.3,0.2,2.6,0.2,3.8-0.3c1.2-0.5,2.2-1.5,2.7-2.7c0.6-1.7-0.1-3.6-1.3-4.8
	c-1.7-1.7-5.8-3.1-7.8-1.2C66.4,5.9,66.6,10.5,69.7,12.1z"/>
<path class="st1" d="M192.5,17.2c0.5,0.3,1.1,0.4,1.7,0.5c1.3,0.2,2.6,0.2,3.8-0.3c1.2-0.5,2.2-1.5,2.7-2.7c0.6-1.7-0.1-3.6-1.3-4.8
	c-1.7-1.7-5.8-3.1-7.8-1.2C189.2,11,189.4,15.6,192.5,17.2z"/>
<path class="st0" d="M217.3,0.9c-0.2,0.6-0.3,1.1-0.3,1.7c0,1.1,0.5,2.2,1.1,3c0.7,0.8,1.6,1.5,2.6,1.8c1.6,0.5,3.5-0.2,4.5-1.5
	c1.1-1.3,1.5-3.4,0.9-4.9c-0.5-1.5-2.1-3.7-4.1-3.9C219.7-3.1,217.9-0.9,217.3,0.9z"/>
<path class="st1" d="M259.1,10.7c0.8,1.6,2.3,2.8,4.1,3.2c1.7,0.4,3.7-0.1,4.9-1.4c1.9-1.9,1.7-5.3,0-7.4c-1.4-1.7-4.9-3.4-7.2-2.3
	C258.1,4.1,257.9,8.3,259.1,10.7z"/>
<path class="st0" d="M413.5,18.9c0.4,2.5,2.9,4.4,5.4,4.6c0.6,0.1,1.2,0,1.8-0.2c0.5-0.2,0.9-0.5,1.2-0.8c0.8-0.8,1.4-1.8,1.7-3
	c0.3-1.2,0.3-2.6-0.2-3.8c-0.5-1.3-1.6-2.3-2.9-2.8C416.8,11.5,412.9,14.9,413.5,18.9z"/>
<path class="st0" d="M478.3,12.2c-0.2,0.6-0.3,1.1-0.3,1.7c0,1.1,0.5,2.2,1.1,3c0.7,0.8,1.6,1.5,2.6,1.8c1.6,0.5,3.5-0.2,4.5-1.5
	c1.1-1.3,1.5-3.4,0.9-4.9c-0.5-1.5-2.1-3.7-4.1-3.9C480.8,8.2,479,10.4,478.3,12.2z"/>
<path class="st0" d="M410.1,18.1c-3.2,1.1-6.7,1.5-10.1,1.1c-0.1,0-0.2,0-0.3-0.1c-0.1-0.1-0.1-0.3-0.1-0.4c0.2-3.9,0.9-7.7,2-11.5
	c1,0.5,1.8,1.3,2.5,2.2c0.8,1,1.7,2,2.5,3c1.4,1.7,2.8,3.3,3.8,5.3c0.1,0.1,0.1,0.3,0.1,0.4C410.4,18.1,410.2,18.2,410.1,18.1z"/>
<path class="st0" d="M213.7,23c-3.4,0.3-6.9-0.1-10.1-1.2c-0.1,0-0.2-0.1-0.3-0.2c-0.1-0.1,0-0.3,0-0.4c1.1-3.7,2.6-7.3,4.5-10.7
	c0.8,0.7,1.5,1.7,2,2.7c0.6,1.2,1.2,2.3,1.8,3.5c1,1.9,2,3.9,2.5,6c0,0.1,0.1,0.3,0,0.4C214.1,23.1,213.8,23.1,213.7,23z"/>
<path class="st0" d="M34.6,1.2c-0.2,0.7,0.1,1.4,0.4,2c1.5,3.3,3,6.7,5.7,9.1c0.1,0.1,0.3,0.2,0.4,0.2c0.2,0,0.3-0.1,0.5-0.3
	c1.5-1.6,2.6-3.4,3.6-5.3c0.5-1,2.5-3.8,1.6-4.9C46,1,34.6,1.1,34.6,1.2z"/>
<path class="st1" d="M368.8,13.9c0.1,0.1,0.3,0.2,0.4,0.1c0.1-0.1,0.2-0.2,0.2-0.4c0.5-2.1,0.7-4.2,0.7-6.3c0-0.1,0-0.2-0.1-0.3
	c-0.1-0.1-0.3-0.1-0.5-0.1c-2.5,0.2-4.4,0.7-6.8,1.1c-0.7,0.1-1.6,0.3-2.9,0.7C362.1,10.8,366,12.3,368.8,13.9z"/>
<path class="st1" d="M470.4,17.1c0.2,0,0.3,0,0.4-0.1c0.1-0.1,0.1-0.3,0.1-0.5c-0.4-2.1-1.1-4.1-1.9-6c0-0.1-0.1-0.2-0.2-0.3
	c-0.2-0.1-0.3,0-0.5,0.1c-2.2,1.3-3.7,2.4-5.8,3.8c-0.6,0.4-1.4,0.9-2.3,1.9C463.1,17.1,467.3,16.8,470.4,17.1z"/>
<path class="st0" d="M175.2,11.9c-0.1,0.2-0.2,0.4-0.2,0.6c0.1,0.3,0.4,0.4,0.7,0.5c3,0.7,6.1,1,9.2,1.2c-0.5-2.2-1.2-4.3-1.9-6.4
	c-0.5-1.3-1.4-5-2.6-5.6C178.4,5.2,176.9,8.8,175.2,11.9z"/>
<path class="st1" d="M306,14.7c0,0.2,0,0.4,0.1,0.5c0.1,0.1,0.4,0.1,0.6,0c3.7-1,7.3-2.5,10.6-4.5c0.2-0.1,0.4-0.2,0.4-0.4
	c0-0.2-0.1-0.3-0.3-0.4c-1.6-1.4-3.3-2.7-4.9-4.1c-1.4-1.1-3-3.1-4.7-3.7c-1,1.4-1,4.5-1.2,6.2C306.3,10.5,306,12.6,306,14.7z"/>
<path class="st2" d="M61.3,14.9c0.2,0.1,0.4,0.1,0.5,0c0.2-0.1,0.2-0.3,0.2-0.5c0-3.9-0.5-7.7-1.6-11.4c-0.1-0.2-0.1-0.4-0.3-0.5
	c-0.2,0-0.3,0.1-0.5,0.2c-1.7,1.2-3.5,2.4-5.2,3.7c-1.4,1-3.8,2.1-4.8,3.5c1.1,1.3,4,2.1,5.7,2.8C57.2,13.5,59.3,14.4,61.3,14.9z"/>
<path class="st2" d="M343.7,17.4c0,0.4,0.1,0.8,0.5,0.9c0.3,0.1,0.5-0.1,0.7-0.3c2.7-2.4,5.3-5,7.8-7.6c0.1-0.1,0.2-0.2,0.2-0.4
	c0-0.2-0.2-0.4-0.4-0.5c-1.7-1.1-3.3-2.2-5-3.3c-0.9-0.6-3.5-2.8-4.2-1.7c-0.3,0.5,0,2.5,0,3.1c0,1.1,0,2.1,0.1,3.2
	C343.4,13.1,343.5,15.3,343.7,17.4z"/>
<path class="st2" d="M132,15.1c0,0.4,0.1,0.8,0.5,0.9c0.3,0.1,0.5-0.1,0.7-0.3c2.7-2.4,5.3-5,7.8-7.6c0.1-0.1,0.2-0.2,0.2-0.4
	c0-0.2-0.2-0.4-0.4-0.5c-1.7-1.1-3.3-2.2-5-3.3c-0.9-0.6-3.5-2.8-4.2-1.7c-0.3,0.5,0,2.5,0,3.1c0,1.1,0,2.1,0.1,3.2
	C131.7,10.7,131.8,12.9,132,15.1z"/>
<path class="st2" d="M455.6,10.8c0.4,0,0.8-0.2,0.9-0.5c0-0.3-0.2-0.5-0.3-0.7c-2.5-2.6-5.2-5.1-7.9-7.5c-0.1-0.1-0.2-0.2-0.4-0.2
	c-0.2,0-0.4,0.2-0.5,0.4c-1.1,1.7-2.1,3.4-3.1,5.2c-0.5,0.9-2.7,3.6-1.5,4.3c0.5,0.3,2.5-0.1,3.1-0.1c1-0.1,2.1-0.1,3.1-0.2
	C451.2,11.2,453.4,11,455.6,10.8z"/>
<path class="st2" d="M384.9,18.5c0,0.4,0.1,0.8,0.5,0.9c0.3,0.1,0.5-0.1,0.7-0.3c2.7-2.4,5.3-5,7.8-7.6c0.1-0.1,0.2-0.2,0.2-0.4
	c0-0.2-0.2-0.4-0.4-0.5c-1.7-1.1-3.3-2.2-5-3.3c-0.9-0.6-3.5-2.8-4.2-1.7c-0.3,0.5,0,2.5,0,3.1c0,1.1,0,2.1,0.1,3.2
	C384.6,14.1,384.8,16.3,384.9,18.5z"/>
<path class="st1" d="M104.8,11.4c0.8,1.6,2.3,2.8,4.1,3.2c1.7,0.4,3.7-0.1,4.9-1.4c1.9-1.9,1.7-5.3,0-7.4c-1.4-1.7-4.9-3.4-7.2-2.3
	C103.8,4.9,103.6,9,104.8,11.4z"/>
<path class="st0" d="M329.5,10.3c-0.1,2,1,4,2.8,4.9c0.9,0.5,1.9,0.7,2.9,0.7c0.8,0,1.6,0,2.3-0.3c1.7-0.6,3-2.2,3.2-4
	c0.2-1.8-0.6-3.7-2.1-4.7C335.2,4.4,329.7,5.6,329.5,10.3z"/>
<path class="st0" d="M-11.4,7.6C-11,10.1-8.6,12-6,12.3c0.6,0.1,1.2,0,1.8-0.2c0.5-0.2,0.9-0.5,1.2-0.8c0.8-0.8,1.4-1.8,1.7-3
	C-1,7-1,5.6-1.5,4.5C-2,3.2-3.1,2.2-4.3,1.7C-8.2,0.2-12.1,3.6-11.4,7.6z"/>
<path class="st0" d="M145.1,6.4c-0.2,0.6-0.3,1.1-0.3,1.7c0,1.1,0.5,2.2,1.1,3c0.7,0.8,1.6,1.5,2.6,1.8c1.6,0.5,3.5-0.2,4.5-1.5
	s1.5-3.4,0.9-4.9c-0.5-1.5-2.1-3.7-4.1-3.9C147.5,2.4,145.7,4.6,145.1,6.4z"/>
<path class="st0" d="M96.7,14.3c-3.4,0.3-6.9-0.1-10.1-1.2c-0.1,0-0.2-0.1-0.3-0.2c-0.1-0.1,0-0.3,0-0.4c1.1-3.7,2.6-7.3,4.5-10.7
	c0.8,0.7,1.5,1.7,2,2.7c0.6,1.2,1.2,2.3,1.8,3.5c1,1.9,2,3.9,2.5,6c0,0.1,0.1,0.3,0,0.4C97.1,14.3,96.8,14.4,96.7,14.3z"/>
<path class="st2" d="M281.8,7.2c-0.2,0.7,0.1,1.4,0.4,2c1.5,3.3,3,6.7,5.7,9.1c0.1,0.1,0.3,0.2,0.4,0.2c0.2,0,0.3-0.1,0.5-0.3
	c1.5-1.6,2.6-3.4,3.6-5.3c0.5-1,2.5-3.8,1.6-4.9C293.2,7,281.8,7.1,281.8,7.2z"/>
<path class="st0" d="M1290.5,0.7c0.6,3.7,0.8,7.5,0.6,11.3c0,0.3-0.1,0.7-0.4,0.8c-0.3,0.1-0.6-0.1-0.8-0.3c-0.6-0.6-1.2-1.3-1.7-2
	c-0.9-1.2-1.9-2.4-2.8-3.6c-0.5-0.6-2.7-2.6-2.6-3.4C1282.9,2.4,1289.3,1.1,1290.5,0.7z"/>
<path class="st1" d="M1237,10.7c0.8,1.6,2.3,2.8,4.1,3.2c1.7,0.4,3.7-0.1,4.9-1.4c1.9-1.9,1.7-5.3,0-7.4c-1.4-1.7-4.9-3.4-7.2-2.3
	C1236,4.1,1235.7,8.3,1237,10.7z"/>
<path class="st2" d="M1259.6,7.2c-0.2,0.7,0.1,1.4,0.4,2c1.5,3.3,3,6.7,5.7,9.1c0.1,0.1,0.3,0.2,0.4,0.2c0.2,0,0.3-0.1,0.5-0.3
	c1.5-1.6,2.6-3.4,3.6-5.3c0.5-1,2.5-3.8,1.6-4.9C1271,7,1259.6,7.1,1259.6,7.2z"/>
<path class="st0" d="M807.4,13.6c0.6,3.7,0.8,7.5,0.6,11.3c0,0.3-0.1,0.7-0.4,0.8c-0.3,0.1-0.6-0.1-0.8-0.3c-0.6-0.6-1.2-1.3-1.7-2
	c-0.9-1.2-1.9-2.4-2.8-3.6c-0.5-0.6-2.7-2.6-2.6-3.4C799.8,15.3,806.2,14,807.4,13.6z"/>
<path class="st1" d="M1056.8,14.4c0,0.2,0,0.4,0.1,0.5c0.1,0.1,0.4,0.1,0.6,0c3.7-1,7.3-2.5,10.6-4.5c0.2-0.1,0.4-0.2,0.4-0.4
	c0-0.2-0.1-0.3-0.3-0.4c-1.6-1.4-3.3-2.7-4.9-4.1c-1.4-1.1-3-3.1-4.7-3.7c-1,1.4-1,4.5-1.2,6.2C1057.1,10.2,1056.8,12.3,1056.8,14.4
	z"/>
<path class="st2" d="M789.1,16.4c0,0.2,0,0.4,0.1,0.5c0.1,0.1,0.4,0.1,0.6,0c3.7-1,7.3-2.5,10.6-4.5c0.2-0.1,0.4-0.2,0.4-0.4
	c0-0.2-0.1-0.3-0.3-0.4c-1.6-1.4-3.3-2.7-4.9-4.1c-1.4-1.1-3-3.1-4.7-3.7c-1,1.4-1,4.5-1.2,6.2C789.3,12.1,789.1,14.3,789.1,16.4z"
	/>
<path class="st2" d="M562.5,14c0,0.2,0,0.4,0.1,0.5c0.1,0.1,0.4,0.1,0.6,0c3.7-1,7.3-2.5,10.6-4.5c0.2-0.1,0.4-0.2,0.4-0.4
	c0-0.2-0.1-0.3-0.3-0.4c-1.6-1.4-3.3-2.7-4.9-4.1c-1.4-1.1-3-3.1-4.7-3.7c-1,1.4-1,4.5-1.2,6.2C562.7,9.7,562.5,11.8,562.5,14z"/>
<path class="st0" d="M714.1,15.1c-0.3,0.4-0.6,0.9-0.3,1.3c0.1,0.2,0.4,0.3,0.6,0.4c3.9,1.3,7.9,2.2,12,2.7c-0.1-2-1.1-3.8-2-5.6
	c-0.9-1.8-1.8-3.5-2.8-5.3c-0.1-0.2-0.3-0.5-0.5-0.6C720,7.3,714.9,14,714.1,15.1z"/>
<path class="st2" d="M1087.9,19c0,0.4,0.1,0.8,0.5,0.9c0.3,0.1,0.5-0.1,0.7-0.3c2.7-2.4,5.3-5,7.8-7.6c0.1-0.1,0.2-0.2,0.2-0.4
	c0-0.2-0.2-0.4-0.4-0.5c-1.7-1.1-3.3-2.2-5-3.3c-0.9-0.6-3.5-2.8-4.2-1.7c-0.3,0.5,0,2.5,0,3.1c0,1.1,0,2.1,0.1,3.2
	C1087.6,14.6,1087.7,16.8,1087.9,19z"/>
<path class="st0" d="M578.4,11.2c0.8,1.6,2.3,2.8,4.1,3.2c1.7,0.4,3.7-0.1,4.9-1.4c1.9-1.9,1.7-5.3,0-7.4c-1.4-1.7-4.9-3.4-7.2-2.3
	C577.4,4.7,577.2,8.8,578.4,11.2z"/>
<path class="st1" d="M988.2,10.9c0.8,1.6,2.3,2.8,4.1,3.2c1.7,0.4,3.7-0.1,4.9-1.4c1.9-1.9,1.7-5.3,0-7.4C995.7,3.6,992.2,2,990,3
	C987.2,4.3,986.9,8.5,988.2,10.9z"/>
<path class="st0" d="M1072.6,10.3c-0.1,2,1,4,2.8,4.9c0.9,0.5,1.9,0.7,2.9,0.7c0.8,0,1.6,0,2.3-0.3c1.7-0.6,3-2.2,3.2-4
	c0.2-1.8-0.6-3.7-2.1-4.7C1078.3,4.3,1072.9,5.5,1072.6,10.3z"/>
<path class="st1" d="M629.2,12.1c0.5,0.3,1.1,0.4,1.7,0.5c1.3,0.2,2.6,0.2,3.8-0.3c1.2-0.5,2.2-1.5,2.7-2.7c0.6-1.7-0.1-3.6-1.3-4.8
	c-1.7-1.7-5.8-3.1-7.8-1.2C625.9,5.9,626.1,10.5,629.2,12.1z"/>
<path class="st1" d="M752,17.2c0.5,0.3,1.1,0.4,1.7,0.5c1.3,0.2,2.6,0.2,3.8-0.3c1.2-0.5,2.2-1.5,2.7-2.7c0.6-1.7-0.1-3.6-1.3-4.8
	c-1.7-1.7-5.8-3.1-7.8-1.2C748.7,11,748.9,15.6,752,17.2z"/>
<path class="st0" d="M776.7,0.9c-0.2,0.6-0.3,1.1-0.3,1.7c0,1.1,0.5,2.2,1.1,3c0.7,0.8,1.6,1.5,2.6,1.8c1.6,0.5,3.5-0.2,4.5-1.5
	c1.1-1.3,1.5-3.4,0.9-4.9c-0.5-1.5-2.1-3.7-4.1-3.9C779.2-3.1,777.4-0.9,776.7,0.9z"/>
<path class="st1" d="M818.6,10.7c0.8,1.6,2.3,2.8,4.1,3.2c1.7,0.4,3.7-0.1,4.9-1.4c1.9-1.9,1.7-5.3,0-7.4c-1.4-1.7-4.9-3.4-7.2-2.3
	C817.6,4.1,817.3,8.3,818.6,10.7z"/>
<path class="st0" d="M973,18.9c0.4,2.5,2.9,4.4,5.4,4.6c0.6,0.1,1.2,0,1.8-0.2c0.5-0.2,0.9-0.5,1.2-0.8c0.8-0.8,1.4-1.8,1.7-3
	c0.3-1.2,0.3-2.6-0.2-3.8c-0.5-1.3-1.6-2.3-2.9-2.8C976.3,11.5,972.3,14.9,973,18.9z"/>
<path class="st0" d="M1037.8,12.2c-0.2,0.6-0.3,1.1-0.3,1.7c0,1.1,0.5,2.2,1.1,3c0.7,0.8,1.6,1.5,2.6,1.8c1.6,0.5,3.5-0.2,4.5-1.5
	c1.1-1.3,1.5-3.4,0.9-4.9c-0.5-1.5-2.1-3.7-4.1-3.9C1040.3,8.2,1038.4,10.4,1037.8,12.2z"/>
<path class="st0" d="M969.5,18.1c-3.2,1.1-6.7,1.5-10.1,1.1c-0.1,0-0.2,0-0.3-0.1c-0.1-0.1-0.1-0.3-0.1-0.4c0.2-3.9,0.9-7.7,2-11.5
	c1,0.5,1.8,1.3,2.5,2.2c0.8,1,1.7,2,2.5,3c1.4,1.7,2.8,3.3,3.8,5.3c0.1,0.1,0.1,0.3,0.1,0.4S969.7,18.2,969.5,18.1z"/>
<path class="st0" d="M773.2,23c-3.4,0.3-6.9-0.1-10.1-1.2c-0.1,0-0.2-0.1-0.3-0.2c-0.1-0.1,0-0.3,0-0.4c1.1-3.7,2.6-7.3,4.5-10.7
	c0.8,0.7,1.5,1.7,2,2.7c0.6,1.2,1.2,2.3,1.8,3.5c1,1.9,2,3.9,2.5,6c0,0.1,0.1,0.3,0,0.4C773.6,23.1,773.3,23.1,773.2,23z"/>
<path class="st0" d="M594.1,1.2c-0.2,0.7,0.1,1.4,0.4,2c1.5,3.3,3,6.7,5.7,9.1c0.1,0.1,0.3,0.2,0.4,0.2c0.2,0,0.3-0.1,0.5-0.3
	c1.5-1.6,2.6-3.4,3.6-5.3c0.5-1,2.5-3.8,1.6-4.9C605.5,1,594.1,1.1,594.1,1.2z"/>
<path class="st1" d="M928.3,13.9c0.1,0.1,0.3,0.2,0.4,0.1c0.1-0.1,0.2-0.2,0.2-0.4c0.5-2.1,0.7-4.2,0.7-6.3c0-0.1,0-0.2-0.1-0.3
	c-0.1-0.1-0.3-0.1-0.5-0.1c-2.5,0.2-4.4,0.7-6.8,1.1c-0.7,0.1-1.6,0.3-2.9,0.7C921.6,10.8,925.5,12.3,928.3,13.9z"/>
<path class="st1" d="M1029.9,17.1c0.2,0,0.3,0,0.4-0.1c0.1-0.1,0.1-0.3,0.1-0.5c-0.4-2.1-1.1-4.1-1.9-6c0-0.1-0.1-0.2-0.2-0.3
	c-0.2-0.1-0.3,0-0.5,0.1c-2.2,1.3-3.7,2.4-5.8,3.8c-0.6,0.4-1.4,0.9-2.3,1.9C1022.6,17.1,1026.8,16.8,1029.9,17.1z"/>
<path class="st0" d="M734.7,11.9c-0.1,0.2-0.2,0.4-0.2,0.6c0.1,0.3,0.4,0.4,0.7,0.5c3,0.7,6.1,1,9.2,1.2c-0.5-2.2-1.2-4.3-1.9-6.4
	c-0.5-1.3-1.4-5-2.6-5.6C737.9,5.2,736.4,8.8,734.7,11.9z"/>
<path class="st1" d="M865.5,14.7c0,0.2,0,0.4,0.1,0.5c0.1,0.1,0.4,0.1,0.6,0c3.7-1,7.3-2.5,10.6-4.5c0.2-0.1,0.4-0.2,0.4-0.4
	c0-0.2-0.1-0.3-0.3-0.4c-1.6-1.4-3.3-2.7-4.9-4.1c-1.4-1.1-3-3.1-4.7-3.7c-1,1.4-1,4.5-1.2,6.2C865.8,10.5,865.5,12.6,865.5,14.7z"
	/>
<path class="st2" d="M620.8,14.9c0.2,0.1,0.4,0.1,0.5,0c0.2-0.1,0.2-0.3,0.2-0.5c0-3.9-0.5-7.7-1.6-11.4c-0.1-0.2-0.1-0.4-0.3-0.5
	c-0.2,0-0.3,0.1-0.5,0.2c-1.7,1.2-3.5,2.4-5.2,3.7c-1.4,1-3.8,2.1-4.8,3.5c1.1,1.3,4,2.1,5.7,2.8C616.7,13.5,618.7,14.4,620.8,14.9z
	"/>
<path class="st2" d="M903.2,17.4c0,0.4,0.1,0.8,0.5,0.9c0.3,0.1,0.5-0.1,0.7-0.3c2.7-2.4,5.3-5,7.8-7.6c0.1-0.1,0.2-0.2,0.2-0.4
	c0-0.2-0.2-0.4-0.4-0.5c-1.7-1.1-3.3-2.2-5-3.3c-0.9-0.6-3.5-2.8-4.2-1.7c-0.3,0.5,0,2.5,0,3.1c0,1.1,0,2.1,0.1,3.2
	C902.9,13.1,903,15.3,903.2,17.4z"/>
<path class="st2" d="M691.5,15.1c0,0.4,0.1,0.8,0.5,0.9c0.3,0.1,0.5-0.1,0.7-0.3c2.7-2.4,5.3-5,7.8-7.6c0.1-0.1,0.2-0.2,0.2-0.4
	c0-0.2-0.2-0.4-0.4-0.5c-1.7-1.1-3.3-2.2-5-3.3c-0.9-0.6-3.5-2.8-4.2-1.7c-0.3,0.5,0,2.5,0,3.1c0,1.1,0,2.1,0.1,3.2
	C691.2,10.7,691.3,12.9,691.5,15.1z"/>
<path class="st2" d="M1015,10.8c0.4,0,0.8-0.2,0.9-0.5c0-0.3-0.2-0.5-0.3-0.7c-2.5-2.6-5.2-5.1-7.9-7.5c-0.1-0.1-0.2-0.2-0.4-0.2
	c-0.2,0-0.4,0.2-0.5,0.4c-1.1,1.7-2.1,3.4-3.1,5.2c-0.5,0.9-2.7,3.6-1.5,4.3c0.5,0.3,2.5-0.1,3.1-0.1c1-0.1,2.1-0.1,3.1-0.2
	C1010.7,11.2,1012.9,11,1015,10.8z"/>
<path class="st2" d="M944.4,18.5c0,0.4,0.1,0.8,0.5,0.9c0.3,0.1,0.5-0.1,0.7-0.3c2.7-2.4,5.3-5,7.8-7.6c0.1-0.1,0.2-0.2,0.2-0.4
	c0-0.2-0.2-0.4-0.4-0.5c-1.7-1.1-3.3-2.2-5-3.3c-0.9-0.6-3.5-2.8-4.2-1.7c-0.3,0.5,0,2.5,0,3.1c0,1.1,0,2.1,0.1,3.2
	C944.1,14.1,944.2,16.3,944.4,18.5z"/>
<path class="st1" d="M664.3,11.4c0.8,1.6,2.3,2.8,4.1,3.2c1.7,0.4,3.7-0.1,4.9-1.4c1.9-1.9,1.7-5.3,0-7.4c-1.4-1.7-4.9-3.4-7.2-2.3
	C663.3,4.9,663,9,664.3,11.4z"/>
<path class="st0" d="M889,10.3c-0.1,2,1,4,2.8,4.9c0.9,0.5,1.9,0.7,2.9,0.7c0.8,0,1.6,0,2.3-0.3c1.7-0.6,3-2.2,3.2-4
	c0.2-1.8-0.6-3.7-2.1-4.7C894.7,4.4,889.2,5.6,889,10.3z"/>
<path class="st0" d="M548,7.6c0.4,2.5,2.9,4.4,5.4,4.6c0.6,0.1,1.2,0,1.8-0.2c0.5-0.2,0.9-0.5,1.2-0.8c0.8-0.8,1.4-1.8,1.7-3
	c0.3-1.2,0.3-2.6-0.2-3.8c-0.5-1.3-1.6-2.3-2.9-2.8C551.3,0.2,547.4,3.6,548,7.6z"/>
<path class="st0" d="M704.5,6.4c-0.2,0.6-0.3,1.1-0.3,1.7c0,1.1,0.5,2.2,1.1,3c0.7,0.8,1.6,1.5,2.6,1.8c1.6,0.5,3.5-0.2,4.5-1.5
	s1.5-3.4,0.9-4.9c-0.5-1.5-2.1-3.7-4.1-3.9C707,2.4,705.2,4.6,704.5,6.4z"/>
<path class="st0" d="M1217.3,10.1c0.6,3.7,0.8,7.5,0.6,11.3c0,0.3-0.1,0.7-0.4,0.8c-0.3,0.1-0.6-0.1-0.8-0.3c-0.6-0.6-1.2-1.3-1.7-2
	c-0.9-1.2-1.9-2.4-2.8-3.6c-0.5-0.6-2.7-2.6-2.6-3.4C1209.8,11.8,1216.1,10.5,1217.3,10.1z"/>
<path class="st1" d="M1116.2,26.3c0,0.2,0,0.4,0.1,0.5c0.1,0.1,0.4,0.1,0.6,0c3.7-1,7.3-2.5,10.6-4.5c0.2-0.1,0.4-0.2,0.4-0.4
	c0-0.2-0.1-0.3-0.3-0.4c-1.6-1.4-3.3-2.7-4.9-4.1c-1.4-1.1-3-3.1-4.7-3.7c-1,1.4-1,4.5-1.2,6.2C1116.5,22,1116.2,24.2,1116.2,26.3z"
	/>
<path class="st2" d="M1199,12.9c0,0.2,0,0.4,0.1,0.5c0.1,0.1,0.4,0.1,0.6,0c3.7-1,7.3-2.5,10.6-4.5c0.2-0.1,0.4-0.2,0.4-0.4
	c0-0.2-0.1-0.3-0.3-0.4c-1.6-1.4-3.3-2.7-4.9-4.1c-1.4-1.1-3-3.1-4.7-3.7c-1,1.4-1,4.5-1.2,6.2C1199.3,8.6,1199,10.8,1199,12.9z"/>
<path class="st0" d="M1124.1,11.6c-0.3,0.4-0.6,0.9-0.3,1.3c0.1,0.2,0.4,0.3,0.6,0.4c3.9,1.3,7.9,2.2,12,2.7c-0.1-2-1.1-3.8-2-5.6
	c-0.9-1.8-1.8-3.5-2.8-5.3c-0.1-0.2-0.3-0.5-0.5-0.6C1129.9,3.8,1124.9,10.6,1124.1,11.6z"/>
<path class="st1" d="M1187.1,18.6c0.8,1.6,2.3,2.8,4.1,3.2c1.7,0.4,3.7-0.1,4.9-1.4c1.9-1.9,1.7-5.3,0-7.4c-1.4-1.7-4.9-3.4-7.2-2.3
	C1186.1,12.1,1185.8,16.2,1187.1,18.6z"/>
<path class="st1" d="M1161.9,13.7c0.5,0.3,1.1,0.4,1.7,0.5c1.3,0.2,2.6,0.2,3.8-0.3c1.2-0.5,2.2-1.5,2.7-2.7
	c0.6-1.7-0.1-3.6-1.3-4.8c-1.7-1.7-5.8-3.1-7.8-1.2C1158.6,7.5,1158.8,12.1,1161.9,13.7z"/>
<path class="st0" d="M1186.7-2.6c-0.2,0.6-0.3,1.1-0.3,1.7c0,1.1,0.5,2.2,1.1,3c0.7,0.8,1.6,1.5,2.6,1.8c1.6,0.5,3.5-0.2,4.5-1.5
	c1.1-1.3,1.5-3.4,0.9-4.9c-0.5-1.5-2.1-3.7-4.1-3.9C1189.1-6.6,1187.3-4.4,1186.7-2.6z"/>
<path class="st0" d="M1183.1,19.5c-3.4,0.3-6.9-0.1-10.1-1.2c-0.1,0-0.2-0.1-0.3-0.2c-0.1-0.1,0-0.3,0-0.4c1.1-3.7,2.6-7.3,4.5-10.7
	c0.8,0.7,1.5,1.7,2,2.7c0.6,1.2,1.2,2.3,1.8,3.5c1,1.9,2,3.9,2.5,6c0,0.1,0.1,0.3,0,0.4C1183.5,19.6,1183.2,19.6,1183.1,19.5z"/>
<path class="st0" d="M1144.6,8.4c-0.1,0.2-0.2,0.4-0.2,0.6c0.1,0.3,0.4,0.4,0.7,0.5c3,0.7,6.1,1,9.2,1.2c-0.5-2.2-1.2-4.3-1.9-6.4
	c-0.5-1.3-1.4-5-2.6-5.6C1147.8,1.7,1146.3,5.3,1144.6,8.4z"/>
<path class="st0" d="M1114.5,2.9c-0.2,0.6-0.3,1.1-0.3,1.7c0,1.1,0.5,2.2,1.1,3c0.7,0.8,1.6,1.5,2.6,1.8c1.6,0.5,3.5-0.2,4.5-1.5
	s1.5-3.4,0.9-4.9c-0.5-1.5-2.1-3.7-4.1-3.9C1116.9-1.1,1115.1,1.1,1114.5,2.9z"/>
<path class="st0" d="M656.2,14.3c-3.4,0.3-6.9-0.1-10.1-1.2c-0.1,0-0.2-0.1-0.3-0.2c-0.1-0.1,0-0.3,0-0.4c1.1-3.7,2.6-7.3,4.5-10.7
	c0.8,0.7,1.5,1.7,2,2.7c0.6,1.2,1.2,2.3,1.8,3.5c1,1.9,2,3.9,2.5,6c0,0.1,0.1,0.3,0,0.4C656.6,14.3,656.3,14.4,656.2,14.3z"/>
<path class="st2" d="M841.3,7.2c-0.2,0.7,0.1,1.4,0.4,2c1.5,3.3,3,6.7,5.7,9.1c0.1,0.1,0.3,0.2,0.4,0.2c0.2,0,0.3-0.1,0.5-0.3
	c1.5-1.6,2.6-3.4,3.6-5.3c0.5-1,2.5-3.8,1.6-4.9C852.6,7,841.3,7.1,841.3,7.2z"/>
<path class="st0" d="M257.1,664.8c0.6,3.7,0.8,7.5,0.6,11.2c0,0.3-0.1,0.7-0.4,0.8c-0.3,0.1-0.6-0.1-0.8-0.3c-0.6-0.6-1.2-1.3-1.7-2
	c-0.9-1.2-1.9-2.4-2.8-3.5c-0.5-0.6-2.6-2.6-2.5-3.4C249.6,666.5,255.9,665.2,257.1,664.8z"/>
<path class="st1" d="M504.4,665.7c0,0.2,0,0.4,0.1,0.5c0.1,0.1,0.4,0.1,0.6,0c3.7-1,7.2-2.5,10.5-4.5c0.2-0.1,0.4-0.2,0.4-0.4
	c0-0.2-0.1-0.3-0.3-0.4c-1.6-1.3-3.3-2.7-4.9-4c-1.4-1.1-3-3.1-4.6-3.7c-1,1.4-1,4.4-1.2,6.1C504.6,661.4,504.4,663.6,504.4,665.7z"
	/>
<path class="st2" d="M239,667.6c0,0.2,0,0.4,0.1,0.5c0.1,0.1,0.4,0.1,0.6,0c3.7-1,7.2-2.5,10.5-4.5c0.2-0.1,0.4-0.2,0.4-0.4
	c0-0.2-0.1-0.3-0.3-0.4c-1.6-1.3-3.3-2.7-4.9-4c-1.4-1.1-3-3.1-4.6-3.7c-1,1.4-1,4.4-1.2,6.1C239.2,663.4,239,665.5,239,667.6z"/>
<path class="st2" d="M14.4,665.2c0,0.2,0,0.4,0.1,0.5c0.1,0.1,0.4,0.1,0.6,0c3.7-1,7.2-2.5,10.5-4.5c0.2-0.1,0.4-0.2,0.4-0.4
	c0-0.2-0.1-0.3-0.3-0.4c-1.6-1.3-3.3-2.7-4.9-4c-1.4-1.1-3-3.1-4.6-3.7c-1,1.4-1,4.4-1.2,6.1C14.6,660.9,14.4,663.1,14.4,665.2z"/>
<path class="st0" d="M164.7,666.3c-0.3,0.4-0.6,0.9-0.3,1.3c0.1,0.2,0.4,0.3,0.6,0.3c3.9,1.3,7.9,2.2,11.9,2.6c-0.1-2-1-3.8-2-5.5
	c-0.9-1.7-1.8-3.5-2.7-5.2c-0.1-0.2-0.3-0.5-0.5-0.6C170.5,658.6,165.5,665.3,164.7,666.3z"/>
<path class="st2" d="M535.1,670.1c0,0.4,0.1,0.8,0.5,0.9c0.3,0.1,0.5-0.1,0.7-0.3c2.7-2.4,5.3-4.9,7.7-7.6c0.1-0.1,0.2-0.2,0.2-0.4
	c0-0.2-0.2-0.4-0.4-0.5c-1.6-1.1-3.3-2.2-5-3.2c-0.9-0.6-3.4-2.8-4.2-1.7c-0.3,0.5,0,2.5,0,3.1c0,1,0,2.1,0.1,3.1
	C534.9,665.8,535,668,535.1,670.1z"/>
<path class="st0" d="M30.2,662.4c0.8,1.5,2.3,2.8,4,3.2c1.7,0.4,3.6-0.1,4.9-1.3c1.9-1.9,1.7-5.3,0-7.3c-1.4-1.7-4.9-3.3-7.1-2.3
	C29.2,656,28.9,660.1,30.2,662.4z"/>
<path class="st1" d="M436.3,662.1c0.8,1.5,2.3,2.8,4,3.2c1.7,0.4,3.6-0.1,4.9-1.3c1.9-1.9,1.7-5.3,0-7.3c-1.4-1.7-4.9-3.3-7.1-2.3
	C435.3,655.7,435,659.7,436.3,662.1z"/>
<path class="st0" d="M520,661.5c-0.1,2,1,3.9,2.8,4.8c0.9,0.5,1.9,0.6,2.8,0.7c0.8,0,1.6,0,2.3-0.3c1.7-0.6,3-2.2,3.2-4
	c0.2-1.8-0.6-3.6-2-4.7C525.7,655.6,520.2,656.9,520,661.5z"/>
<path class="st1" d="M80.5,663.3c0.5,0.3,1.1,0.4,1.6,0.5c1.3,0.2,2.6,0.2,3.8-0.3c1.2-0.5,2.2-1.4,2.6-2.7c0.6-1.6-0.1-3.6-1.3-4.8
	c-1.7-1.7-5.7-3.1-7.7-1.1C77.2,657.2,77.5,661.8,80.5,663.3z"/>
<path class="st1" d="M202.2,668.4c0.5,0.3,1.1,0.4,1.6,0.5c1.3,0.2,2.6,0.2,3.8-0.3c1.2-0.5,2.2-1.4,2.6-2.7
	c0.6-1.6-0.1-3.6-1.3-4.8c-1.7-1.7-5.7-3.1-7.7-1.1C198.9,662.3,199.2,666.8,202.2,668.4z"/>
<path class="st0" d="M226.7,652.2c-0.2,0.5-0.3,1.1-0.3,1.7c0,1.1,0.5,2.1,1.1,3c0.7,0.8,1.6,1.5,2.6,1.8c1.6,0.4,3.4-0.2,4.5-1.5
	c1.1-1.3,1.5-3.3,0.9-4.9c-0.5-1.5-2.1-3.7-4.1-3.9C229.2,648.3,227.4,650.5,226.7,652.2z"/>
<path class="st1" d="M268.3,661.9c0.8,1.5,2.3,2.8,4,3.2c1.7,0.4,3.6-0.1,4.9-1.3c1.9-1.9,1.7-5.3,0-7.3c-1.4-1.7-4.9-3.3-7.1-2.3
	C267.3,655.5,267,659.5,268.3,661.9z"/>
<path class="st0" d="M421.3,670.1c0.4,2.5,2.9,4.4,5.4,4.6c0.6,0.1,1.2,0,1.7-0.2c0.5-0.2,0.9-0.5,1.2-0.8c0.8-0.8,1.4-1.8,1.7-2.9
	c0.3-1.2,0.3-2.6-0.2-3.8c-0.5-1.2-1.6-2.3-2.8-2.8C424.5,662.7,420.6,666.1,421.3,670.1z"/>
<path class="st0" d="M485.5,663.5c-0.2,0.5-0.3,1.1-0.3,1.7c0,1.1,0.5,2.1,1.1,3c0.7,0.8,1.6,1.5,2.6,1.8c1.6,0.4,3.4-0.2,4.5-1.5
	c1.1-1.3,1.5-3.3,0.9-4.9c-0.5-1.5-2.1-3.7-4.1-3.9C487.9,659.5,486.1,661.7,485.5,663.5z"/>
<path class="st0" d="M417.8,669.3c-3.2,1.1-6.7,1.4-10,1c-0.1,0-0.2,0-0.3-0.1c-0.1-0.1-0.1-0.3-0.1-0.4c0.2-3.8,0.9-7.7,2-11.4
	c0.9,0.5,1.8,1.3,2.5,2.1c0.8,1,1.7,2,2.5,3c1.4,1.6,2.8,3.3,3.8,5.2c0.1,0.1,0.1,0.3,0.1,0.4C418.2,669.3,418,669.4,417.8,669.3z"
	/>
<path class="st0" d="M223.2,674.2c-3.4,0.3-6.8-0.1-10-1.2c-0.1,0-0.2-0.1-0.3-0.2c-0.1-0.1,0-0.3,0-0.4c1.1-3.7,2.6-7.3,4.5-10.6
	c0.8,0.7,1.5,1.7,2,2.6c0.6,1.2,1.2,2.3,1.8,3.5c1,1.9,2,3.9,2.5,5.9c0,0.1,0.1,0.3,0,0.4C223.6,674.2,223.3,674.3,223.2,674.2z"/>
<path class="st0" d="M45.7,652.5c-0.2,0.7,0.1,1.4,0.4,2c1.5,3.2,3,6.6,5.6,9c0.1,0.1,0.3,0.2,0.4,0.2c0.2,0,0.3-0.1,0.5-0.3
	c1.5-1.5,2.6-3.4,3.6-5.3c0.5-1,2.5-3.8,1.6-4.8C57,652.4,45.7,652.5,45.7,652.5z"/>
<path class="st1" d="M376.9,665.1c0.1,0.1,0.3,0.2,0.4,0.1c0.1-0.1,0.2-0.2,0.2-0.4c0.5-2,0.7-4.1,0.7-6.2c0-0.1,0-0.2-0.1-0.3
	c-0.1-0.1-0.3-0.1-0.5-0.1c-2.5,0.2-4.3,0.6-6.8,1.1c-0.7,0.1-1.6,0.3-2.9,0.7C370.3,662.1,374.2,663.6,376.9,665.1z"/>
<path class="st1" d="M477.7,668.3c0.2,0,0.3,0,0.4-0.1c0.1-0.1,0.1-0.3,0.1-0.4c-0.4-2-1.1-4-1.9-5.9c0-0.1-0.1-0.2-0.2-0.3
	c-0.2-0.1-0.3,0-0.5,0.1c-2.2,1.2-3.7,2.4-5.7,3.8c-0.6,0.4-1.4,0.9-2.3,1.9C470.4,668.3,474.6,668,477.7,668.3z"/>
<path class="st0" d="M185.1,663.2c-0.1,0.2-0.2,0.4-0.2,0.6c0.1,0.3,0.4,0.4,0.7,0.5c3,0.7,6,1,9.1,1.1c-0.5-2.1-1.1-4.2-1.9-6.3
	c-0.5-1.3-1.3-5-2.5-5.5C188.3,656.5,186.8,660.1,185.1,663.2z"/>
<path class="st1" d="M314.7,666c0,0.2,0,0.4,0.1,0.5c0.1,0.1,0.4,0.1,0.6,0c3.7-1,7.2-2.5,10.5-4.5c0.2-0.1,0.4-0.2,0.4-0.4
	c0-0.2-0.1-0.3-0.3-0.4c-1.6-1.3-3.3-2.7-4.9-4c-1.4-1.1-3-3.1-4.6-3.7c-1,1.4-1,4.4-1.2,6.1C315,661.7,314.7,663.9,314.7,666z"/>
<path class="st2" d="M72.2,666.2c0.2,0.1,0.4,0.1,0.5,0c0.2-0.1,0.2-0.3,0.2-0.5c0-3.8-0.5-7.6-1.5-11.3c-0.1-0.2-0.1-0.4-0.3-0.5
	c-0.2,0-0.3,0.1-0.5,0.2c-1.7,1.2-3.4,2.4-5.2,3.6c-1.4,1-3.8,2.1-4.8,3.5c1.1,1.3,4,2.1,5.6,2.8C68.1,664.8,70.1,665.6,72.2,666.2z
	"/>
<path class="st2" d="M352.1,668.6c0,0.4,0.1,0.8,0.5,0.9c0.3,0.1,0.5-0.1,0.7-0.3c2.7-2.4,5.3-4.9,7.7-7.6c0.1-0.1,0.2-0.2,0.2-0.4
	c0-0.2-0.2-0.4-0.4-0.5c-1.6-1.1-3.3-2.2-5-3.2c-0.9-0.6-3.4-2.8-4.2-1.7c-0.3,0.5,0,2.5,0,3.1c0,1,0,2.1,0.1,3.1
	C351.8,664.3,351.9,666.5,352.1,668.6z"/>
<path class="st2" d="M142.2,666.3c0,0.4,0.1,0.8,0.5,0.9c0.3,0.1,0.5-0.1,0.7-0.3c2.7-2.4,5.3-4.9,7.7-7.6c0.1-0.1,0.2-0.2,0.2-0.4
	c0-0.2-0.2-0.4-0.4-0.5c-1.6-1.1-3.3-2.2-5-3.2c-0.9-0.6-3.4-2.8-4.2-1.7c-0.3,0.5,0,2.5,0,3.1c0,1,0,2.1,0.1,3.1
	C142,662,142.1,664.2,142.2,666.3z"/>
<path class="st2" d="M463,662.1c0.4,0,0.8-0.2,0.9-0.5c0-0.3-0.2-0.5-0.3-0.7c-2.5-2.6-5.1-5.1-7.9-7.4c-0.1-0.1-0.2-0.2-0.4-0.2
	c-0.2,0-0.3,0.2-0.5,0.4c-1,1.7-2.1,3.4-3.1,5.1c-0.5,0.9-2.7,3.5-1.5,4.2c0.5,0.3,2.5-0.1,3.1-0.1c1-0.1,2.1-0.1,3.1-0.2
	C458.6,662.5,460.8,662.3,463,662.1z"/>
<path class="st2" d="M392.9,669.7c0,0.4,0.1,0.8,0.5,0.9c0.3,0.1,0.5-0.1,0.7-0.3c2.7-2.4,5.3-4.9,7.7-7.6c0.1-0.1,0.2-0.2,0.2-0.4
	c0-0.2-0.2-0.4-0.4-0.5c-1.6-1.1-3.3-2.2-5-3.2c-0.9-0.6-3.4-2.8-4.2-1.7c-0.3,0.5,0,2.5,0,3.1c0,1,0,2.1,0.1,3.1
	C392.6,665.3,392.8,667.5,392.9,669.7z"/>
<path class="st1" d="M115.3,662.7c0.8,1.5,2.3,2.8,4,3.2c1.7,0.4,3.6-0.1,4.9-1.3c1.9-1.9,1.7-5.3,0-7.3c-1.4-1.7-4.9-3.3-7.1-2.3
	C114.3,656.2,114,660.3,115.3,662.7z"/>
<path class="st0" d="M338,661.6c-0.1,2,1,3.9,2.8,4.8c0.9,0.5,1.9,0.6,2.8,0.7c0.8,0,1.6,0,2.3-0.3c1.7-0.6,3-2.2,3.2-4
	c0.2-1.8-0.6-3.6-2-4.7C343.6,655.7,338.2,656.9,338,661.6z"/>
<path class="st0" d="M0.1,658.9c0.4,2.5,2.9,4.4,5.4,4.6c0.6,0.1,1.2,0,1.7-0.2c0.5-0.2,0.9-0.5,1.2-0.8c0.8-0.8,1.4-1.8,1.7-2.9
	c0.3-1.2,0.3-2.6-0.2-3.8c-0.5-1.2-1.6-2.3-2.8-2.8C3.3,651.5-0.6,654.9,0.1,658.9z"/>
<path class="st0" d="M155.2,657.7c-0.2,0.5-0.3,1.1-0.3,1.7c0,1.1,0.5,2.1,1.1,3c0.7,0.8,1.6,1.5,2.6,1.8c1.6,0.4,3.4-0.2,4.5-1.5
	c1.1-1.3,1.5-3.3,0.9-4.9c-0.5-1.5-2.1-3.7-4.1-3.9C157.6,653.8,155.8,655.9,155.2,657.7z"/>
<path class="st0" d="M107.3,665.5c-3.4,0.3-6.8-0.1-10-1.2c-0.1,0-0.2-0.1-0.3-0.2c-0.1-0.1,0-0.3,0-0.4c1.1-3.7,2.6-7.3,4.5-10.6
	c0.8,0.7,1.5,1.7,2,2.6c0.6,1.2,1.2,2.3,1.8,3.5c1,1.9,2,3.9,2.5,5.9c0,0.1,0.1,0.3,0,0.4C107.7,665.6,107.4,665.6,107.3,665.5z"/>
<path class="st2" d="M290.7,658.5c-0.2,0.7,0.1,1.4,0.4,2c1.5,3.2,3,6.6,5.6,9c0.1,0.1,0.3,0.2,0.4,0.2c0.2,0,0.3-0.1,0.5-0.3
	c1.5-1.5,2.6-3.4,3.6-5.3c0.5-1,2.5-3.8,1.6-4.8C302,658.3,290.7,658.4,290.7,658.5z"/>
<path class="st0" d="M1290.5,652c0.6,3.7,0.8,7.5,0.6,11.2c0,0.3-0.1,0.7-0.4,0.8c-0.3,0.1-0.6-0.1-0.8-0.3c-0.6-0.6-1.2-1.3-1.7-2
	c-0.9-1.2-1.9-2.4-2.8-3.5c-0.5-0.6-2.6-2.6-2.5-3.4C1283,653.8,1289.3,652.4,1290.5,652z"/>
<path class="st1" d="M1237.5,661.9c0.8,1.5,2.3,2.8,4,3.2c1.7,0.4,3.6-0.1,4.9-1.3c1.9-1.9,1.7-5.3,0-7.3c-1.4-1.7-4.9-3.3-7.1-2.3
	C1236.5,655.5,1236.2,659.5,1237.5,661.9z"/>
<path class="st2" d="M1259.9,658.5c-0.2,0.7,0.1,1.4,0.4,2c1.5,3.2,3,6.6,5.6,9c0.1,0.1,0.3,0.2,0.4,0.2c0.2,0,0.3-0.1,0.5-0.3
	c1.5-1.5,2.6-3.4,3.6-5.3c0.5-1,2.5-3.8,1.6-4.8C1271.2,658.3,1259.9,658.4,1259.9,658.5z"/>
<path class="st0" d="M811.7,664.8c0.6,3.7,0.8,7.5,0.6,11.2c0,0.3-0.1,0.7-0.4,0.8c-0.3,0.1-0.6-0.1-0.8-0.3c-0.6-0.6-1.2-1.3-1.7-2
	c-0.9-1.2-1.9-2.4-2.8-3.5c-0.5-0.6-2.6-2.6-2.5-3.4C804.2,666.5,810.5,665.2,811.7,664.8z"/>
<path class="st1" d="M1058.9,665.7c0,0.2,0,0.4,0.1,0.5c0.1,0.1,0.4,0.1,0.6,0c3.7-1,7.2-2.5,10.5-4.5c0.2-0.1,0.4-0.2,0.4-0.4
	c0-0.2-0.1-0.3-0.3-0.4c-1.6-1.3-3.3-2.7-4.9-4c-1.4-1.1-3-3.1-4.6-3.7c-1,1.4-1,4.4-1.2,6.1
	C1059.2,661.4,1058.9,663.6,1058.9,665.7z"/>
<path class="st2" d="M793.5,667.6c0,0.2,0,0.4,0.1,0.5c0.1,0.1,0.4,0.1,0.6,0c3.7-1,7.2-2.5,10.5-4.5c0.2-0.1,0.4-0.2,0.4-0.4
	c0-0.2-0.1-0.3-0.3-0.4c-1.6-1.3-3.3-2.7-4.9-4c-1.4-1.1-3-3.1-4.6-3.7c-1,1.4-1,4.4-1.2,6.1C793.8,663.4,793.5,665.5,793.5,667.6z"
	/>
<path class="st2" d="M568.9,665.2c0,0.2,0,0.4,0.1,0.5c0.1,0.1,0.4,0.1,0.6,0c3.7-1,7.2-2.5,10.5-4.5c0.2-0.1,0.4-0.2,0.4-0.4
	c0-0.2-0.1-0.3-0.3-0.4c-1.6-1.3-3.3-2.7-4.9-4c-1.4-1.1-3-3.1-4.6-3.7c-1,1.4-1,4.4-1.2,6.1C569.2,660.9,568.9,663.1,568.9,665.2z"
	/>
<path class="st0" d="M719.2,666.3c-0.3,0.4-0.6,0.9-0.3,1.3c0.1,0.2,0.4,0.3,0.6,0.3c3.9,1.3,7.9,2.2,11.9,2.6c-0.1-2-1-3.8-2-5.5
	c-0.9-1.7-1.8-3.5-2.7-5.2c-0.1-0.2-0.3-0.5-0.5-0.6C725,658.6,720,665.3,719.2,666.3z"/>
<path class="st2" d="M1089.7,670.1c0,0.4,0.1,0.8,0.5,0.9c0.3,0.1,0.5-0.1,0.7-0.3c2.7-2.4,5.3-4.9,7.7-7.6c0.1-0.1,0.2-0.2,0.2-0.4
	c0-0.2-0.2-0.4-0.4-0.5c-1.6-1.1-3.3-2.2-5-3.2c-0.9-0.6-3.4-2.8-4.2-1.7c-0.3,0.5,0,2.5,0,3.1c0,1,0,2.1,0.1,3.1
	C1089.4,665.8,1089.5,668,1089.7,670.1z"/>
<path class="st0" d="M584.7,662.4c0.8,1.5,2.3,2.8,4,3.2c1.7,0.4,3.6-0.1,4.9-1.3c1.9-1.9,1.7-5.3,0-7.3c-1.4-1.7-4.9-3.3-7.1-2.3
	C583.8,656,583.5,660.1,584.7,662.4z"/>
<path class="st1" d="M990.8,662.1c0.8,1.5,2.3,2.8,4,3.2c1.7,0.4,3.6-0.1,4.9-1.3c1.9-1.9,1.7-5.3,0-7.3c-1.4-1.7-4.9-3.3-7.1-2.3
	C989.8,655.7,989.6,659.7,990.8,662.1z"/>
<path class="st0" d="M1074.5,661.5c-0.1,2,1,3.9,2.8,4.8c0.9,0.5,1.9,0.6,2.8,0.7c0.8,0,1.6,0,2.3-0.3c1.7-0.6,3-2.2,3.2-4
	c0.2-1.8-0.6-3.6-2-4.7C1080.2,655.6,1074.8,656.9,1074.5,661.5z"/>
<path class="st1" d="M635,663.3c0.5,0.3,1.1,0.4,1.6,0.5c1.3,0.2,2.6,0.2,3.8-0.3c1.2-0.5,2.2-1.4,2.6-2.7c0.6-1.6-0.1-3.6-1.3-4.8
	c-1.7-1.7-5.7-3.1-7.7-1.1C631.8,657.2,632,661.8,635,663.3z"/>
<path class="st1" d="M756.7,668.4c0.5,0.3,1.1,0.4,1.6,0.5c1.3,0.2,2.6,0.2,3.8-0.3c1.2-0.5,2.2-1.4,2.6-2.7
	c0.6-1.6-0.1-3.6-1.3-4.8c-1.7-1.7-5.7-3.1-7.7-1.1C753.5,662.3,753.7,666.8,756.7,668.4z"/>
<path class="st0" d="M781.3,652.2c-0.2,0.5-0.3,1.1-0.3,1.7c0,1.1,0.5,2.1,1.1,3c0.7,0.8,1.6,1.5,2.6,1.8c1.6,0.4,3.4-0.2,4.5-1.5
	c1.1-1.3,1.5-3.3,0.9-4.9c-0.5-1.5-2.1-3.7-4.1-3.9C783.7,648.3,781.9,650.5,781.3,652.2z"/>
<path class="st1" d="M822.8,661.9c0.8,1.5,2.3,2.8,4,3.2c1.7,0.4,3.6-0.1,4.9-1.3c1.9-1.9,1.7-5.3,0-7.3c-1.4-1.7-4.9-3.3-7.1-2.3
	C821.8,655.5,821.5,659.5,822.8,661.9z"/>
<path class="st0" d="M975.8,670.1c0.4,2.5,2.9,4.4,5.4,4.6c0.6,0.1,1.2,0,1.7-0.2c0.5-0.2,0.9-0.5,1.2-0.8c0.8-0.8,1.4-1.8,1.7-2.9
	c0.3-1.2,0.3-2.6-0.2-3.8c-0.5-1.2-1.6-2.3-2.8-2.8C979,662.7,975.1,666.1,975.8,670.1z"/>
<path class="st0" d="M1040,663.5c-0.2,0.5-0.3,1.1-0.3,1.7c0,1.1,0.5,2.1,1.1,3c0.7,0.8,1.6,1.5,2.6,1.8c1.6,0.4,3.4-0.2,4.5-1.5
	c1.1-1.3,1.5-3.3,0.9-4.9c-0.5-1.5-2.1-3.7-4.1-3.9C1042.5,659.5,1040.7,661.7,1040,663.5z"/>
<path class="st0" d="M972.4,669.3c-3.2,1.1-6.7,1.4-10,1c-0.1,0-0.2,0-0.3-0.1c-0.1-0.1-0.1-0.3-0.1-0.4c0.2-3.8,0.9-7.7,2-11.4
	c0.9,0.5,1.8,1.3,2.5,2.1c0.8,1,1.7,2,2.5,3c1.4,1.6,2.8,3.3,3.8,5.2c0.1,0.1,0.1,0.3,0.1,0.4C972.7,669.3,972.5,669.4,972.4,669.3z
	"/>
<path class="st0" d="M777.8,674.2c-3.4,0.3-6.8-0.1-10-1.2c-0.1,0-0.2-0.1-0.3-0.2c-0.1-0.1,0-0.3,0-0.4c1.1-3.7,2.6-7.3,4.5-10.6
	c0.8,0.7,1.5,1.7,2,2.6c0.6,1.2,1.2,2.3,1.8,3.5c1,1.9,2,3.9,2.5,5.9c0,0.1,0.1,0.3,0,0.4C778.1,674.2,777.9,674.3,777.8,674.2z"/>
<path class="st0" d="M600.3,652.5c-0.2,0.7,0.1,1.4,0.4,2c1.5,3.2,3,6.6,5.6,9c0.1,0.1,0.3,0.2,0.4,0.2c0.2,0,0.3-0.1,0.5-0.3
	c1.5-1.5,2.6-3.4,3.6-5.3c0.5-1,2.5-3.8,1.6-4.8C611.5,652.4,600.3,652.5,600.3,652.5z"/>
<path class="st1" d="M931.5,665.1c0.1,0.1,0.3,0.2,0.4,0.1c0.1-0.1,0.2-0.2,0.2-0.4c0.5-2,0.7-4.1,0.7-6.2c0-0.1,0-0.2-0.1-0.3
	c-0.1-0.1-0.3-0.1-0.5-0.1c-2.5,0.2-4.3,0.6-6.8,1.1c-0.7,0.1-1.6,0.3-2.9,0.7C924.9,662.1,928.8,663.6,931.5,665.1z"/>
<path class="st1" d="M1032.2,668.3c0.2,0,0.3,0,0.4-0.1c0.1-0.1,0.1-0.3,0.1-0.4c-0.4-2-1.1-4-1.9-5.9c0-0.1-0.1-0.2-0.2-0.3
	c-0.2-0.1-0.3,0-0.5,0.1c-2.2,1.2-3.7,2.4-5.7,3.8c-0.6,0.4-1.4,0.9-2.3,1.9C1025,668.3,1029.1,668,1032.2,668.3z"/>
<path class="st0" d="M739.6,663.2c-0.1,0.2-0.2,0.4-0.2,0.6c0.1,0.3,0.4,0.4,0.7,0.5c3,0.7,6,1,9.1,1.1c-0.5-2.1-1.1-4.2-1.9-6.3
	c-0.5-1.3-1.3-5-2.5-5.5C742.8,656.5,741.3,660.1,739.6,663.2z"/>
<path class="st1" d="M869.2,666c0,0.2,0,0.4,0.1,0.5c0.1,0.1,0.4,0.1,0.6,0c3.7-1,7.2-2.5,10.5-4.5c0.2-0.1,0.4-0.2,0.4-0.4
	c0-0.2-0.1-0.3-0.3-0.4c-1.6-1.3-3.3-2.7-4.9-4c-1.4-1.1-3-3.1-4.6-3.7c-1,1.4-1,4.4-1.2,6.1C869.5,661.7,869.2,663.9,869.2,666z"/>
<path class="st2" d="M626.7,666.2c0.2,0.1,0.4,0.1,0.5,0c0.2-0.1,0.2-0.3,0.2-0.5c0-3.8-0.5-7.6-1.5-11.3c-0.1-0.2-0.1-0.4-0.3-0.5
	c-0.2,0-0.3,0.1-0.5,0.2c-1.7,1.2-3.4,2.4-5.2,3.6c-1.4,1-3.8,2.1-4.8,3.5c1.1,1.3,4,2.1,5.6,2.8
	C622.7,664.8,624.7,665.6,626.7,666.2z"/>
<path class="st2" d="M906.6,668.6c0,0.4,0.1,0.8,0.5,0.9c0.3,0.1,0.5-0.1,0.7-0.3c2.7-2.4,5.3-4.9,7.7-7.6c0.1-0.1,0.2-0.2,0.2-0.4
	c0-0.2-0.2-0.4-0.4-0.5c-1.6-1.1-3.3-2.2-5-3.2c-0.9-0.6-3.4-2.8-4.2-1.7c-0.3,0.5,0,2.5,0,3.1c0,1,0,2.1,0.1,3.1
	C906.3,664.3,906.4,666.5,906.6,668.6z"/>
<path class="st2" d="M696.7,666.3c0,0.4,0.1,0.8,0.5,0.9c0.3,0.1,0.5-0.1,0.7-0.3c2.7-2.4,5.3-4.9,7.7-7.6c0.1-0.1,0.2-0.2,0.2-0.4
	c0-0.2-0.2-0.4-0.4-0.5c-1.6-1.1-3.3-2.2-5-3.2c-0.9-0.6-3.4-2.8-4.2-1.7c-0.3,0.5,0,2.5,0,3.1c0,1,0,2.1,0.1,3.1
	C696.5,662,696.6,664.2,696.7,666.3z"/>
<path class="st2" d="M1017.5,662.1c0.4,0,0.8-0.2,0.9-0.5c0-0.3-0.2-0.5-0.3-0.7c-2.5-2.6-5.1-5.1-7.9-7.4c-0.1-0.1-0.2-0.2-0.4-0.2
	c-0.2,0-0.3,0.2-0.5,0.4c-1,1.7-2.1,3.4-3.1,5.1c-0.5,0.9-2.7,3.5-1.5,4.2c0.5,0.3,2.5-0.1,3.1-0.1c1-0.1,2.1-0.1,3.1-0.2
	C1013.2,662.5,1015.3,662.3,1017.5,662.1z"/>
<path class="st2" d="M947.4,669.7c0,0.4,0.1,0.8,0.5,0.9c0.3,0.1,0.5-0.1,0.7-0.3c2.7-2.4,5.3-4.9,7.7-7.6c0.1-0.1,0.2-0.2,0.2-0.4
	c0-0.2-0.2-0.4-0.4-0.5c-1.6-1.1-3.3-2.2-5-3.2c-0.9-0.6-3.4-2.8-4.2-1.7c-0.3,0.5,0,2.5,0,3.1c0,1,0,2.1,0.1,3.1
	C947.2,665.3,947.3,667.5,947.4,669.7z"/>
<path class="st1" d="M669.9,662.7c0.8,1.5,2.3,2.8,4,3.2c1.7,0.4,3.6-0.1,4.9-1.3c1.9-1.9,1.7-5.3,0-7.3c-1.4-1.7-4.9-3.3-7.1-2.3
	C668.9,656.2,668.6,660.3,669.9,662.7z"/>
<path class="st0" d="M892.5,661.6c-0.1,2,1,3.9,2.8,4.8c0.9,0.5,1.9,0.6,2.8,0.7c0.8,0,1.6,0,2.3-0.3c1.7-0.6,3-2.2,3.2-4
	c0.2-1.8-0.6-3.6-2-4.7C898.2,655.7,892.8,656.9,892.5,661.6z"/>
<path class="st0" d="M554.6,658.9c0.4,2.5,2.9,4.4,5.4,4.6c0.6,0.1,1.2,0,1.7-0.2c0.5-0.2,0.9-0.5,1.2-0.8c0.8-0.8,1.4-1.8,1.7-2.9
	c0.3-1.2,0.3-2.6-0.2-3.8c-0.5-1.2-1.6-2.3-2.8-2.8C557.9,651.5,554,654.9,554.6,658.9z"/>
<path class="st0" d="M709.7,657.7c-0.2,0.5-0.3,1.1-0.3,1.7c0,1.1,0.5,2.1,1.1,3c0.7,0.8,1.6,1.5,2.6,1.8c1.6,0.4,3.4-0.2,4.5-1.5
	c1.1-1.3,1.5-3.3,0.9-4.9c-0.5-1.5-2.1-3.7-4.1-3.9C712.2,653.8,710.4,655.9,709.7,657.7z"/>
<path class="st0" d="M1218,661.4c0.6,3.7,0.8,7.5,0.6,11.2c0,0.3-0.1,0.7-0.4,0.8c-0.3,0.1-0.6-0.1-0.8-0.3c-0.6-0.6-1.2-1.3-1.7-2
	c-0.9-1.2-1.9-2.4-2.8-3.5c-0.5-0.6-2.6-2.6-2.5-3.4C1210.5,663.1,1216.8,661.8,1218,661.4z"/>
<path class="st1" d="M1117.8,677.4c0,0.2,0,0.4,0.1,0.5c0.1,0.1,0.4,0.1,0.6,0c3.7-1,7.2-2.5,10.5-4.5c0.2-0.1,0.4-0.2,0.4-0.4
	c0-0.2-0.1-0.3-0.3-0.4c-1.6-1.3-3.3-2.7-4.9-4c-1.4-1.1-3-3.1-4.6-3.7c-1,1.4-1,4.4-1.2,6.1C1118,673.2,1117.8,675.3,1117.8,677.4z
	"/>
<path class="st2" d="M1199.8,664.1c0,0.2,0,0.4,0.1,0.5c0.1,0.1,0.4,0.1,0.6,0c3.7-1,7.2-2.5,10.5-4.5c0.2-0.1,0.4-0.2,0.4-0.4
	c0-0.2-0.1-0.3-0.3-0.4c-1.6-1.3-3.3-2.7-4.9-4c-1.4-1.1-3-3.1-4.6-3.7c-1,1.4-1,4.4-1.2,6.1C1200.1,659.9,1199.8,662,1199.8,664.1z
	"/>
<path class="st0" d="M1125.5,662.8c-0.3,0.4-0.6,0.9-0.3,1.3c0.1,0.2,0.4,0.3,0.6,0.3c3.9,1.3,7.9,2.2,11.9,2.6c-0.1-2-1-3.8-2-5.5
	c-0.9-1.7-1.8-3.5-2.7-5.2c-0.1-0.2-0.3-0.5-0.5-0.6C1131.3,655.1,1126.3,661.8,1125.5,662.8z"/>
<path class="st1" d="M1188,669.8c0.8,1.5,2.3,2.8,4,3.2c1.7,0.4,3.6-0.1,4.9-1.3c1.9-1.9,1.7-5.3,0-7.3c-1.4-1.7-4.9-3.3-7.1-2.3
	C1187,663.4,1186.7,667.4,1188,669.8z"/>
<path class="st1" d="M1163,664.9c0.5,0.3,1.1,0.4,1.6,0.5c1.3,0.2,2.6,0.2,3.8-0.3c1.2-0.5,2.2-1.4,2.6-2.7c0.6-1.6-0.1-3.6-1.3-4.8
	c-1.7-1.7-5.7-3.1-7.7-1.1C1159.8,658.8,1160,663.4,1163,664.9z"/>
<path class="st0" d="M1187.6,648.8c-0.2,0.5-0.3,1.1-0.3,1.7c0,1.1,0.5,2.1,1.1,3c0.7,0.8,1.6,1.5,2.6,1.8c1.6,0.4,3.4-0.2,4.5-1.5
	c1.1-1.3,1.5-3.3,0.9-4.9c-0.5-1.5-2.1-3.7-4.1-3.9C1190,644.8,1188.2,647,1187.6,648.8z"/>
<path class="st0" d="M1184.1,670.7c-3.4,0.3-6.8-0.1-10-1.2c-0.1,0-0.2-0.1-0.3-0.2c-0.1-0.1,0-0.3,0-0.4c1.1-3.7,2.6-7.3,4.5-10.6
	c0.8,0.7,1.5,1.7,2,2.6c0.6,1.2,1.2,2.3,1.8,3.5c1,1.9,2,3.9,2.5,5.9c0,0.1,0.1,0.3,0,0.4C1184.4,670.8,1184.2,670.8,1184.1,670.7z"
	/>
<path class="st0" d="M1145.9,659.7c-0.1,0.2-0.2,0.4-0.2,0.6c0.1,0.3,0.4,0.4,0.7,0.5c3,0.7,6,1,9.1,1.1c-0.5-2.1-1.1-4.2-1.9-6.3
	c-0.5-1.3-1.3-5-2.5-5.5C1149.1,653,1147.6,656.6,1145.9,659.7z"/>
<path class="st0" d="M1116,654.3c-0.2,0.5-0.3,1.1-0.3,1.7c0,1.1,0.5,2.1,1.1,3c0.7,0.8,1.6,1.5,2.6,1.8c1.6,0.4,3.4-0.2,4.5-1.5
	s1.5-3.3,0.9-4.9c-0.5-1.5-2.1-3.7-4.1-3.9C1118.5,650.3,1116.7,652.5,1116,654.3z"/>
<path class="st0" d="M661.8,665.5c-3.4,0.3-6.8-0.1-10-1.2c-0.1,0-0.2-0.1-0.3-0.2c-0.1-0.1,0-0.3,0-0.4c1.1-3.7,2.6-7.3,4.5-10.6
	c0.8,0.7,1.5,1.7,2,2.6c0.6,1.2,1.2,2.3,1.8,3.5c1,1.9,2,3.9,2.5,5.9c0,0.1,0.1,0.3,0,0.4C662.2,665.6,661.9,665.6,661.8,665.5z"/>
<path class="st2" d="M845.3,658.5c-0.2,0.7,0.1,1.4,0.4,2c1.5,3.2,3,6.6,5.6,9c0.1,0.1,0.3,0.2,0.4,0.2c0.2,0,0.3-0.1,0.5-0.3
	c1.5-1.5,2.6-3.4,3.6-5.3c0.5-1,2.5-3.8,1.6-4.8C856.5,658.3,845.3,658.4,845.3,658.5z"/>
</svg>
