<svg xmlns="http://www.w3.org/2000/svg" width="133.355" height="67.422" viewBox="0 0 133.355 67.422">
  <g id="Icon_Carousel_Arrow_-_big" data-name="Icon_Carousel Arrow - big" transform="translate(6.363 6.365)">
    <path id="Path_2" data-name="Path 2" d="M9304.23,715.5H9185.878" transform="translate(-9181.737 -688.882)" fill="none" stroke="#FF6D00" stroke-linecap="round" stroke-width="9"/>
    <path id="Path_3" data-name="Path 3" d="M9235.549,712.058,9208.205,739.4l27.344,27.346" transform="translate(-9208.205 -712.058)" fill="none" stroke="#FF6D00" stroke-linecap="round" stroke-width="9"/>
  </g>
</svg>
