<?xml version="1.0" encoding="utf-8"?>
<!-- Generator: Adobe Illustrator 25.0.0, SVG Export Plug-In . SVG Version: 6.00 Build 0)  -->
<svg version="1.1" id="Layer_1" xmlns="http://www.w3.org/2000/svg" xmlns:xlink="http://www.w3.org/1999/xlink" x="0px" y="0px"
	 viewBox="0 0 63.9 14.4" style="enable-background:new 0 0 63.9 14.4;" xml:space="preserve">
<style type="text/css">
	.st0{fill:#21AA55;}
	.st1{fill:#FFFFFF;}
	.st2{font-family:'Poppins-Medium';}
	.st3{font-size:9.4828px;}
</style>
<g>
	<rect class="st0" width="63.9" height="14.4"/>
</g>
<text transform="matrix(1 0 0 1 7.0416 10.1355)" class="st1 st2 st3">Mandatory</text>
</svg>
